project
…
Tidied Data

project_data_tidied <- project_data %>% 
  dplyr::select(-X__1, -X__2) %>% 
  replace_with_na_at(.vars = c("CARE1", "CARE2", "CARE3", "CARE4", "CARE5", "CARE6", "CARE7", "CARE8", "CARE9", "CARE10"),
                     condition = ~.x == 6)
project_data_tidied

## # A tibble: 1,377 x 44
##    subid study condcoat condemp COMP1 COMP2 COMP3 COMP4 COMP5 WARM1 WARM2
##    <dbl> <dbl>    <dbl>   <dbl> <dbl> <dbl> <dbl> <dbl> <dbl> <dbl> <dbl>
##  1     1     1        1       0     1     1     1     4     1     1     1
##  2     2     1        1       1     4     4     4     4     5     4     4
##  3     3     1        1       1     4     3     2     2     4     4     3
##  4     4     1        1       0     3     3     3     3     3     3     2
##  5     5     1        1       0     3     4     3     3     4     3     2
##  6     6     1        1       1     3     4     3     2     3     3     4
##  7     7     1        1       0     5     5     4     1     5     3     2
##  8     8     1        1       1     5     5     4     2     4     3     5
##  9     9     1        1       0     5     4     4     2     5     4     3
## 10    10     1        1       1     5     5     3     2     5     4     3
## # ... with 1,367 more rows, and 33 more variables: WARM4 <dbl>,
## #   WARM3 <dbl>, CARE1 <dbl>, CARE2 <dbl>, CARE3 <dbl>, CARE4 <dbl>,
## #   CARE5 <dbl>, CARE6 <dbl>, CARE7 <dbl>, CARE8 <dbl>, CARE9 <dbl>,
## #   CARE10 <dbl>, PANASPOS1 <dbl>, PANASNEG1 <dbl>, PANASPOS2 <dbl>,
## #   PANASNEG2 <dbl>, PANASPOS3 <dbl>, PANASNEG3 <dbl>, PANASNEG4 <dbl>,
## #   PANASNEG5 <dbl>, PANASPOS4 <dbl>, PANASPOS5 <dbl>, PANASNEG6 <dbl>,
## #   PANASPOS6 <dbl>, PANASNEG7 <dbl>, PANASPOS7 <dbl>, PANASNEG8 <dbl>,
## #   PANASPOS8 <dbl>, PANASPOS9 <dbl>, PANASNEG9 <dbl>, PANASPOS10 <dbl>,
## #   PANASNEG10 <dbl>, sex <dbl>
…
## # A tibble: 3 x 2
##   study     n
##   <dbl> <int>
## 1     2    99
## 2     3   100
## 3     4    94

Exploring missing columns

project_data %>% 
  filter(X__1 == 0 | X__1 == 1| X__2 == 0| X__2 ==1) 

## # A tibble: 161 x 46
##    subid study condcoat condemp COMP1 COMP2 COMP3 COMP4 COMP5 WARM1 WARM2
##    <dbl> <dbl>    <dbl>   <dbl> <dbl> <dbl> <dbl> <dbl> <dbl> <dbl> <dbl>
##  1     1     1        1       0     1     1     1     4     1     1     1
##  2     2     1        1       1     4     4     4     4     5     4     4
##  3     4     1        1       0     3     3     3     3     3     3     2
##  4     5     1        1       0     3     4     3     3     4     3     2
##  5     6     1        1       1     3     4     3     2     3     3     4
##  6     7     1        1       0     5     5     4     1     5     3     2
##  7     8     1        1       1     5     5     4     2     4     3     5
##  8     9     1        1       0     5     4     4     2     5     4     3
##  9    10     1        1       1     5     5     3     2     5     4     3
## 10    11     1        1       1     3     4     3     3     3     2     2
## # ... with 151 more rows, and 35 more variables: WARM4 <dbl>, WARM3 <dbl>,
## #   CARE1 <dbl>, CARE2 <dbl>, CARE3 <dbl>, CARE4 <dbl>, CARE5 <dbl>,
## #   CARE6 <dbl>, CARE7 <dbl>, CARE8 <dbl>, CARE9 <dbl>, CARE10 <dbl>,
## #   PANASPOS1 <dbl>, PANASNEG1 <dbl>, PANASPOS2 <dbl>, PANASNEG2 <dbl>,
## #   PANASPOS3 <dbl>, PANASNEG3 <dbl>, PANASNEG4 <dbl>, PANASNEG5 <dbl>,
## #   PANASPOS4 <dbl>, PANASPOS5 <dbl>, PANASNEG6 <dbl>, PANASPOS6 <dbl>,
## #   PANASNEG7 <dbl>, PANASPOS7 <dbl>, PANASNEG8 <dbl>, PANASPOS8 <dbl>,
## #   PANASPOS9 <dbl>, PANASNEG9 <dbl>, PANASPOS10 <dbl>, PANASNEG10 <dbl>,
## #   sex <dbl>, X__1 <dbl>, X__2 <dbl>
…
